
ANY; ROLE_SPA_OFFICIAL_IN_CHARGE; CREATE_STATEMENT; ANY
ANY; ROLE_SPA_OFFICIAL_IN_CHARGE; MANIPULATE_ATTACHMENTS; ANY
ANY; ROLE_SPA_OFFICIAL_IN_CHARGE; SEARCH_CONTACTS; ANY
ANY; ROLE_SPA_OFFICIAL_IN_CHARGE; MOVE_MAIL; ANY
ANY; ROLE_SPA_OFFICIAL_IN_CHARGE; FINISH_STATEMENT; ANY
ANY; ROLE_SPA_OFFICIAL_IN_CHARGE; ADD_CONSIDERATION; IS_FINISHED
ANY; ROLE_SPA_OFFICIAL_IN_CHARGE; ADMIN_SET_TEXTBLOCK_DEFINITION; ANY

ANY; ROLE_SPA_OFFICIAL_IN_CHARGE; CANCEL_STATEMENT; ANY
ANY; ROLE_SPA_OFFICIAL_IN_CHARGE; REVIVE_STATEMENT; ANY

ANY; ROLE_SPA_APPROVER; FINISH_STATEMENT; ANY

ANY; ROLE_SPA_ACCESS; READ_BASE_DATA; ANY
ANY; ROLE_SPA_ACCESS; READ_STATEMENT; ANY
ANY; ROLE_SPA_ACCESS; READ_MAIL; ANY
ANY; ROLE_SPA_ACCESS; READ_WORKFLOW_TASK; ANY
ANY; ROLE_SPA_ACCESS; UNCLAIM_TASK; ANY
ANY; ROLE_SPA_ACCESS; CREATE_COMMENT; ANY
ANY; ROLE_SPA_ACCESS; READ_STATEMENT_PROCESS_HISTORY; ANY
ANY; ROLE_SPA_ACCESS; DELETE_COMMENT; IS_OWN_COMMENT
ANY; ROLE_SPA_ACCESS; READ_DASHBOARD_STATEMENTS; ANY
ANY; ROLE_SPA_ACCESS; READ_STATEMENT_DRAFT_HISTORY; ANY


ANY; ROLE_SPA_ADMIN; ADMIN_SET_DEPARTMENT_STRUCTURE; ANY
ANY; ROLE_SPA_ADMIN; CREATE_TAG; ANY
ANY; ROLE_SPA_ADMIN; ADMIN_SET_TEXTBLOCK_DEFINITION; ANY
ANY; ROLE_SPA_ADMIN; ADMIN_SET_USER_SETTINGS; ANY
ANY; ROLE_SPA_ADMIN; SYNC_KEYCLOAK_USERS; ANY
ANY; ROLE_SPA_ADMIN; CANCEL_STATEMENT; ANY
ANY; ROLE_SPA_ADMIN; REVIVE_STATEMENT; ANY


addBasicInfoData; ROLE_SPA_OFFICIAL_IN_CHARGE; READ_WORKFLOW_TASK; ANY
addBasicInfoData; ROLE_SPA_OFFICIAL_IN_CHARGE; CLAIM_TASK; ANY
addBasicInfoData; ROLE_SPA_OFFICIAL_IN_CHARGE; MANIPULATE_ATTACHMENTS; IS_CLAIMED_BY_USER
addBasicInfoData; ROLE_SPA_OFFICIAL_IN_CHARGE; MANIPULATE_STATEMENT; IS_CLAIMED_BY_USER


addWorkflowData; ROLE_SPA_OFFICIAL_IN_CHARGE; READ_WORKFLOW_TASK; ANY
addWorkflowData; ROLE_SPA_OFFICIAL_IN_CHARGE; CLAIM_TASK; ANY
addWorkflowData; ROLE_SPA_OFFICIAL_IN_CHARGE; SET_PARENT_STATEMENTS; ANY
addWorkflowData; ROLE_SPA_OFFICIAL_IN_CHARGE; SET_REQ_DEPARTMENTS; ANY
addWorkflowData; ROLE_SPA_OFFICIAL_IN_CHARGE; SET_WORKFLOW_DATA; ANY


createDraft; ROLE_SPA_OFFICIAL_IN_CHARGE; READ_WORKFLOW_TASK; ANY
createDraft; ROLE_SPA_OFFICIAL_IN_CHARGE; CLAIM_TASK; ANY
createDraft; ROLE_SPA_OFFICIAL_IN_CHARGE; SET_TEXTARRANGEMENT; IS_CLAIMED_BY_USER
createDraft; ROLE_SPA_OFFICIAL_IN_CHARGE; MANIPULATE_ATTACHMENTS; IS_CLAIMED_BY_USER
createDraft; ROLE_SPA_OFFICIAL_IN_CHARGE; SET_DEPARTMENT_CONTRIBUTIONS; ANY
createDraft; ROLE_SPA_OFFICIAL_IN_CHARGE; SET_TEXTARRANGEMENT; IS_REQ_DIVISION_MEMBER

enrichDraft; ROLE_SPA_DIVISION_MEMBER; READ_WORKFLOW_TASK; ANY
enrichDraft; ROLE_SPA_DIVISION_MEMBER; CLAIM_TASK; IS_REQ_DIVISION_MEMBER
enrichDraft; ROLE_SPA_DIVISION_MEMBER; SET_TEXTARRANGEMENT; IS_REQ_DIVISION_MEMBER
enrichDraft; ROLE_SPA_DIVISION_MEMBER; MANIPULATE_ATTACHMENTS; IS_REQ_DIVISION_MEMBER
enrichDraft; ROLE_SPA_DIVISION_MEMBER; MANIPULATE_ATTACHMENTS; IS_CLAIMED_BY_USER
enrichDraft; ROLE_SPA_DIVISION_MEMBER; SET_USER_CONTRIBUTED; ANY

enrichDraft; ROLE_SPA_OFFICIAL_IN_CHARGE; READ_WORKFLOW_TASK; ANY
enrichDraft; ROLE_SPA_OFFICIAL_IN_CHARGE; CLAIM_TASK; ANY
enrichDraft; ROLE_SPA_OFFICIAL_IN_CHARGE; SET_TEXTARRANGEMENT; IS_CLAIMED_BY_USER
enrichDraft; ROLE_SPA_OFFICIAL_IN_CHARGE; MANIPULATE_ATTACHMENTS; ANY
enrichDraft; ROLE_SPA_OFFICIAL_IN_CHARGE; MANIPULATE_ATTACHMENTS; IS_CLAIMED_BY_USER
enrichDraft; ROLE_SPA_OFFICIAL_IN_CHARGE; SET_USER_CONTRIBUTED; ANY


checkAndFormulateResponse; ROLE_SPA_OFFICIAL_IN_CHARGE; READ_WORKFLOW_TASK; ANY
checkAndFormulateResponse; ROLE_SPA_OFFICIAL_IN_CHARGE; CLAIM_TASK; ANY
checkAndFormulateResponse; ROLE_SPA_OFFICIAL_IN_CHARGE; SET_TEXTARRANGEMENT; IS_CLAIMED_BY_USER
checkAndFormulateResponse; ROLE_SPA_OFFICIAL_IN_CHARGE; MANIPULATE_ATTACHMENTS; IS_CLAIMED_BY_USER
checkAndFormulateResponse; ROLE_SPA_OFFICIAL_IN_CHARGE; REPLACE_STATEMENT_RESPONSE; IS_CLAIMED_BY_USER
checkAndFormulateResponse; ROLE_SPA_OFFICIAL_IN_CHARGE; SET_DEPARTMENT_CONTRIBUTIONS; ANY
checkAndFormulateResponse; ROLE_SPA_OFFICIAL_IN_CHARGE; SET_TEXTARRANGEMENT; IS_REQ_DIVISION_MEMBER


createNegativeResponse; ROLE_SPA_OFFICIAL_IN_CHARGE; READ_WORKFLOW_TASK; ANY
createNegativeResponse; ROLE_SPA_OFFICIAL_IN_CHARGE; CLAIM_TASK; ANY
createNegativeResponse; ROLE_SPA_OFFICIAL_IN_CHARGE; SET_TEXTARRANGEMENT; IS_CLAIMED_BY_USER
createNegativeResponse; ROLE_SPA_OFFICIAL_IN_CHARGE; MANIPULATE_ATTACHMENTS; IS_CLAIMED_BY_USER
createNegativeResponse; ROLE_SPA_OFFICIAL_IN_CHARGE; REPLACE_STATEMENT_RESPONSE; IS_CLAIMED_BY_USER
createNegativeResponse; ROLE_SPA_OFFICIAL_IN_CHARGE; SET_TEXTARRANGEMENT; IS_REQ_DIVISION_MEMBER


approveStatement; ROLE_SPA_APPROVER; CLAIM_TASK; ANY
approveStatement; ROLE_SPA_APPROVER; READ_WORKFLOW_TASK; ANY

sendStatement; ROLE_SPA_OFFICIAL_IN_CHARGE; READ_WORKFLOW_TASK; ANY
sendStatement; ROLE_SPA_OFFICIAL_IN_CHARGE; CLAIM_TASK; ANY
sendStatement; ROLE_SPA_OFFICIAL_IN_CHARGE; DISPATCH_STATEMENT_RESPONSE; IS_CLAIMED_BY_USER




